{
  "upstreams": [
    {
      "uri": "https://github.com/ConnorShride/box-ps",
      "repository": "ConnorShride",
      "tool": "box-ps",
      "provider": "GitHub",
      "method": "commit",
      "origin": true,
      "docker_origin": true
    }
  ]
}
